module gitlab.com/gozora/jerry

go 1.17

require github.com/go-vgo/robotgo v0.100.2

require (
	github.com/StackExchange/wmi v1.2.1 // indirect
	github.com/go-ole/go-ole v1.2.5 // indirect
	github.com/lxn/win v0.0.0-20210218163916-a377121e959e // indirect
	github.com/otiai10/gosseract v2.2.1+incompatible // indirect
	github.com/robotn/gohook v0.31.2 // indirect
	github.com/robotn/xgb v0.0.0-20190912153532-2cb92d044934 // indirect
	github.com/robotn/xgbutil v0.0.0-20190912154524-c861d6f87770 // indirect
	github.com/shirou/gopsutil v3.21.8+incompatible // indirect
	github.com/tklauser/go-sysconf v0.3.9 // indirect
	github.com/tklauser/numcpus v0.3.0 // indirect
	github.com/vcaesar/gops v0.21.2 // indirect
	github.com/vcaesar/imgo v0.30.0 // indirect
	github.com/vcaesar/tt v0.20.0 // indirect
	golang.org/x/image v0.0.0-20210628002857-a66eb6448b8d // indirect
	golang.org/x/sys v0.0.0-20210925032602-92d5a993a665 // indirect
)
